{
  "variables": {
    "locale": "en_GB.UTF-8",
    "language": "en_GB",
    "country": "UK",
    "vm_name": "ubuntu19-10vagrant",
    "domain": "",
    "keyboard": "gb",
    "preseed_file": "preseed.cfg",
    "ubuntu_version":"19.10"
  },
  "builders": [
    {
      "type": "virtualbox-iso",
      "guest_os_type": "Ubuntu_64",
      "iso_url": "http://cdimage.ubuntu.com/releases/{{user `ubuntu_version`}}/release/ubuntu-{{user `ubuntu_version`}}-server-amd64.iso",
      "iso_checksum": "921fd8b271c04aa86a321cc35b40e677f9b85f7903bf2204efb2389b0f0a64c1",
      "iso_checksum_type": "sha256",
      "vm_name": "{{user `vm_name`}}",
      "disk_size": 10000,
      "headless": "true",
      "http_directory": "http",
      "http_port_min" : 9001,
      "http_port_max" : 9001,
      "boot_command": [
        "<esc><f6><esc>",
        "<bs><bs><bs><bs><bs><bs><bs><bs><bs><bs>",
        "<bs><bs><bs><bs><bs><bs><bs><bs><bs><bs>",
        "<bs><bs><bs><bs><bs><bs><bs><bs><bs><bs>",
        "<bs><bs><bs><bs><bs><bs><bs><bs><bs><bs>",
        "<bs><bs><bs><bs><bs><bs><bs><bs><bs><bs>",
        "<bs><bs><bs><bs><bs><bs><bs><bs><bs><bs>",
        "<bs><bs><bs><bs><bs><bs><bs><bs><bs><bs>",
        "<bs><bs><bs><bs><bs><bs><bs><bs><bs><bs>",
        "<bs><bs><bs>",
        "initrd=/install/initrd.gz ",
        "auto=true ",
        "url=http://{{.HTTPIP}}:{{.HTTPPort}}/{{user `preseed_file`}} ",
        "language={{user `language`}} ",
        "country={{user `country`}} ",
        "locale={{user `locale`}} ",
        "hostname={{user `vm_name`}} ",
        "domain={{user `domain`}} ",
        "interface=auto ",
        "console-setup/ask_detect=false ",
        "keyboard-configuration/layoutcode={{user `keyboard`}} ",
        "vga=788 noprompt quiet --<enter>"
      ],
      "ssh_username": "vagrant",
      "ssh_password": "vagrant",
      "ssh_wait_timeout": "20m",
      "shutdown_command": "echo 'vagrant'|sudo -S shutdown -P now",
      "post_shutdown_delay": "180s",
      "guest_additions_path": "VBoxGuestAdditions.iso"
    }
  ],
  "provisioners": [
    {
      "type": "shell",
      "execute_command": "echo 'vagrant' | {{.Vars}} sudo -S -E bash '{{.Path}}'",
      "scripts": [
        "scripts/10-users.sh",
        "scripts/20-ssh.sh",
        "scripts/30-guest-additions.sh"
      ],
      "only": ["virtualbox-iso"]
    }
  ],
  "post-processors": [
    {
      "type": "manifest",
      "output": "manifest.vbox",
      "strip_path": true
    },
    {
      "type": "vagrant",
      "output": "ubuntu-{{user `ubuntu_version`}}-amd64_{{.Provider}}.box",
      "only": ["virtualbox-iso"]
    }
  ]
}
